A catalogue of ready-to-use ASGS (and other) sf objects • absmapsdata
…
Get correspondence files

You can use the get_correspondence_absmaps function to get population-weighted correspondence tables provided by the ABS. Note that while there are lots of correspondence tables, not every combination is available.

For example:

get_correspondence_absmaps("cd", 2006,
                           "sa1", 2016)
#> # A tibble: 92,336 × 5
#>    CD_CODE_2006 SA1_MAINCODE_2016 SA1_7DIGITCODE_2016  ratio PERCENTAGE        
#>    <chr>        <chr>             <chr>                <dbl> <chr>             
#>  1 1010101      10902117908       1117908             0.477  47.705709900000002
#>  2 1010101      10902117909       1117909             0.486  48.579130499999998
#>  3 1010101      10902117910       1117910             0.0372 3.7151597000000001
#>  4 1010102      10902117907       1117907             0.210  21.012930999999998
#>  5 1010102      10902117908       1117908             0.281  28.062155199999999
#>  6 1010102      10902117910       1117910             0.509  50.924913799999999
#>  7 1010103      10902117907       1117907             1      100               
#>  8 1010104      10902117901       1117901             0.510  51.007496400000001
#>  9 1010104      10902117907       1117907             0.490  48.992503599999999
#> 10 1010105      10902117907       1117907             1      100               
#> # … with 92,326 more rows
…
