…
This package also contains a number of 2016 population-weighted ABS
correspondences (the most recent) that can be found on the [data.gov.au
website](https://data.gov.au/data/dataset/asgs-geographic-correspondences-2016/resource/951e18c7-f187-4c86-a73f-fcabcd19af16).

> :white_check_mark: Use
> [`strayr::read_correspondence_tbl`](https://github.com/runapp-aus/strayr)
> to access correspondence this data, rather than loading the whole
> `absmapsdata` package, e.g.:

``` r
# remotes::install_github("runapp-aus/strayr")
strayr::read_correspondence_tbl(from_area = "sa2", from_year = 2011,
                                to_area = "sa2", to_year = 2016) 
#> # A tibble: 2,426 × 6
#>    SA2_MAINCODE_2011 SA2_NAME_2011     SA2_MAINCODE_2016 SA2_NAME_2016     ratio PERCENTAGE
#>    <chr>             <chr>             <chr>             <chr>             <dbl> <chr>     
#>  1 101011001         Goulburn          101051539         Goulburn              1 100       
#>  2 101011002         Goulburn Region   101051540         Goulburn Region       1 100       
#>  3 101011003         Yass              101061541         Yass                  1 100       
#>  4 101011004         Yass Region       101061542         Yass Region           1 100       
#>  5 101011005         Young             101061543         Young                 1 100       
#>  6 101011006         Young Region      101061544         Young Region          1 100       
#>  7 101021007         Braidwood         101021007         Braidwood             1 100       
#>  8 101021008         Karabar           101021008         Karabar               1 100       
#>  9 101021009         Queanbeyan        101021009         Queanbeyan            1 100       
#> 10 101021010         Queanbeyan - East 101021010         Queanbeyan - East     1 100       
#> # ℹ 2,416 more rows
```
…
<img src="man/figures/README-unnamed-chunk-12-1.png" width="100%" />

## Get correspondence files

> :white_check_mark: Use
> [`strayr::read_correspondence_tbl`](https://github.com/runapp-aus/strayr)
> to access correspondence this data, rather than loading the whole
> `absmapsdata` package, e.g.:

``` r
# remotes::install_github("runapp-aus/strayr")
strayr::read_correspondence_tbl(from_area = "sa2", from_year = 2011,
                                to_area = "sa2", to_year = 2016) 
#> Reading file found in /var/folders/98/c8srjgc55kbfzlrnl3c9yy2w0000gn/T//RtmpyJ9yUb
#> # A tibble: 2,426 × 6
#>    SA2_MAINCODE_2011 SA2_NAME_2011     SA2_MAINCODE_2016 SA2_NAME_2016     ratio PERCENTAGE
#>    <chr>             <chr>             <chr>             <chr>             <dbl> <chr>     
#>  1 101011001         Goulburn          101051539         Goulburn              1 100       
#>  2 101011002         Goulburn Region   101051540         Goulburn Region       1 100       
#>  3 101011003         Yass              101061541         Yass                  1 100       
#>  4 101011004         Yass Region       101061542         Yass Region           1 100       
#>  5 101011005         Young             101061543         Young                 1 100       
#>  6 101011006         Young Region      101061544         Young Region          1 100       
#>  7 101021007         Braidwood         101021007         Braidwood             1 100       
#>  8 101021008         Karabar           101021008         Karabar               1 100       
#>  9 101021009         Queanbeyan        101021009         Queanbeyan            1 100       
#> 10 101021010         Queanbeyan - East 101021010         Queanbeyan - East     1 100       
#> # ℹ 2,416 more rows
```

You can use the `absmapsdata::get_correspondence_absmaps` function to
get population-weighted correspondence tables provided [by the
ABS](https://data.gov.au/data/dataset/asgs-geographic-correspondences-2016/resource/951e18c7-f187-4c86-a73f-fcabcd19af16).
Note that while there are lots of correspondence tables, not every
combination is available.

For example:

``` r
get_correspondence_absmaps("cd", 2006,
                           "sa1", 2016)
#> # A tibble: 92,336 × 5
#>    CD_CODE_2006 SA1_MAINCODE_2016 SA1_7DIGITCODE_2016  ratio PERCENTAGE        
#>    <chr>        <chr>             <chr>                <dbl> <chr>             
#>  1 1010101      10902117908       1117908             0.477  47.705709900000002
#>  2 1010101      10902117909       1117909             0.486  48.579130499999998
#>  3 1010101      10902117910       1117910             0.0372 3.7151597000000001
#>  4 1010102      10902117907       1117907             0.210  21.012930999999998
#>  5 1010102      10902117908       1117908             0.281  28.062155199999999
#>  6 1010102      10902117910       1117910             0.509  50.924913799999999
#>  7 1010103      10902117907       1117907             1      100               
#>  8 1010104      10902117901       1117901             0.510  51.007496400000001
#>  9 1010104      10902117907       1117907             0.490  48.992503599999999
#> 10 1010105      10902117907       1117907             1      100               
#> # ℹ 92,326 more rows
```
…
